…
``` r
bib <- RefManageR::ReadBib("library.bib", check = FALSE)
```

## Visualisando

``` r
bib_df <- bib |>
  tibble::as.tibble()

bib_df
```

    ## # A tibble: 726 × 23
    ##    bibtype   author issn  issue journal pages publisher title volume year  abstract
    ##    <chr>     <chr>  <chr> <chr> <chr>   <chr> <chr>     <chr> <chr>  <chr> <chr>   
    ##  1 Article   Mario… 1932… 3     PloS o… e015… Public L… Dise… 11     2016   <NA>   
    ##  2 TechRepo… Lee R… <NA>  3     <NA>    297-… <NA>      Meas… 26     1945   <NA>   
    ##  3 TechRepo… Devon… <NA>  1     J. Par… 216-… <NA>      Func… 93     2007  "Most e…
    ##  4 TechRepo… Benja… <NA>  1     Source… 70-82 <NA>      A Co… 76     1996   <NA>   
    ##  5 TechRepo… Habin… <NA>  3     Landsc… 155-… SPB Acad… A ne… 8      1993  "A cont…
    ##  6 TechRepo… G Eve… <NA>  <NA>  <NA>    1-12  <NA>      The … 105    1953   <NA>   
    ##  7 TechRepo… Rober… <NA>  <NA>  <NA>    <NA>  <NA>      ON T… <NA>   2024  "One ap…
    ##  8 Book      Penny… <NA>  <NA>  <NA>    81    LEARN (L… A pl… <NA>   2008  "Cover …
    ##  9 TechRepo… T M D… <NA>  2     Source… 222-… <NA>      A Co… 26     1975   <NA>   
    ## 10 TechRepo… R H W… <NA>  3     <NA>    279-… <NA>      Vege… 30     1960   <NA>   
    ## # ℹ 716 more rows
    ## # ℹ 12 more variables: isbn <chr>, url <chr>, keywords <chr>, doi <chr>,
    ## #   month <chr>, pmid <chr>, city <chr>, editor <chr>, booktitle <chr>,
    ## #   edition <chr>, note <chr>, school <chr>
…
## Tipo de jornal por ano

``` r
bib_df |>
  dplyr::summarise(quantidade = dplyr::n(),
                   .by = c(journal)) |>
  dplyr::arrange(quantidade|> dplyr::desc()) |>
  tidyr::drop_na()
```

    ## # A tibble: 211 × 2
    ##    journal                       quantidade
    ##    <chr>                              <int>
    ##  1 Biological Conservation               20
    ##  2 Biotropica                            19
    ##  3 Biodiversity and Conservation         15
    ##  4 Source: Oikos                         11
    ##  5 PLoS ONE                              11
    ##  6 Ecology                               11
    ##  7 Journal of Biogeography               11
    ##  8 Landscape Ecology                     10
    ##  9 Journal of Herpetology                10
    ## 10 Ecography                              9
    ## # ℹ 201 more rows
…
